{ guid: 'b74f9557-2cbf-4824-a697-956a8b73c8e6',
  address: 
   { region: 
      { guid: 'e76abf09-3148-42f6-85db-51edb09e72b7',
        actual: true,
        aoGuid: '92b30014-4d52-4e2e-892d-928142b924bf',
        aoLevel: 1,
        formalName: 'Свердловская',
        offName: 'Свердловская',
        shortName: 'обл',
        regionCode: '66',
        subjectCity: false },
     settlement: 
      { guid: 'b5817b1a-0785-4db8-98eb-af80b17a6b91',
        actual: true,
        aoGuid: '328c93c6-e76f-4250-a877-ce06805929f7',
        aoLevel: 6,
        formalName: 'Свободный',
        offName: 'Свободный',
        shortName: 'пгт',
        parentGuid: '92b30014-4d52-4e2e-892d-928142b924bf',
        regionCode: '66',
        subjectCity: false },
     street: 
      { guid: '59970a86-f025-4e9e-abe3-eb2562fbc361',
        actual: true,
        aoGuid: '0b7b25ac-2aad-447e-98cc-b79130cf2164',
        aoLevel: 7,
        formalName: 'Космонавтов',
        offName: 'Космонавтов',
        shortName: 'ул',
        parentGuid: '328c93c6-e76f-4250-a877-ce06805929f7',
        regionCode: '66',
        subjectCity: false },
     house: 
      { guid: '88a1a433-f4a2-4c03-87ea-42d3b14f7ee7',
        actual: true,
        houseGuid: 'b7b63d3d-78ae-4750-b414-3e2c6b1ae46a',
        aoGuid: '0b7b25ac-2aad-447e-98cc-b79130cf2164',
        postalCode: '624790',
        houseNumber: '21',
        isAddedManually: false,
        estStatus: 'DOM',
        strStatus: 'NE_OPREDELENO',
        aggregated: false,
        houseTextAddress: '21' },
     formattedAddress: '624790, обл Свердловская, пгт Свободный, ул Космонавтов, д. 21',
     deprecated: false },
  houseType: 
   { guid: '55a9b133-24eb-456f-85c4-134624646a8d',
     code: '1',
     rootEntityGuid: '55a9b133-24eb-456f-85c4-134624646a8d',
     actual: true,
     lastUpdateDate: '06.02.2015',
     createDate: '06.02.2015',
     houseTypeName: 'Многоквартирный' },
  houseUid: 'TBK00714',
  totalSquare: '4759.9',
  residentialSquare: '4348.7',
  managementOrganization: 
   { guid: '77c2b15e-3a2c-40f9-ad64-3402c22533b7',
     createDate: '06.08.2016',
     lastEventDate: '20.06.2018',
     fullName: 'МУНИЦИПАЛЬНОЕ УНИТАРНОЕ ПРЕДПРИЯТИЕ ЖИЛИЩНО-КОММУНАЛЬНОГО ХОЗЯЙСТВА "КЕДР"',
     shortName: 'МУП ЖКХ "КЕДР"',
     orgAddress: '624790, ОБЛ СВЕРДЛОВСКАЯ, П СВОБОДНЫЙ, УЛ СВОБОДЫ, д. 65',
     phone: '+7(922)1710016',
     url: 'жкх-кедр.рф',
     organizationType: 'L',
     olsonTZ: { guid: '1e05329c-6ff0-4a20-b373-bb57c3592c3b', code: '6' },
     okopf: { guid: '36c898a0-46a2-4854-a1ed-493fd61d2fde', code: '65243' },
     registryOrganizationRootEntityGuid: '1eaecf7e-1f3f-4d24-8a07-c9b8bd2119b4',
     ogrn: '1026600786651' },
  houseCondition: 
   { guid: '2d3ae73e-6c72-4740-9122-9c632d1893a7',
     code: '2',
     rootEntityGuid: '2d3ae73e-6c72-4740-9122-9c632d1893a7',
     actual: true,
     lastUpdateDate: '06.02.2015',
     createDate: '06.02.2015',
     houseCondition: 'Исправный' },
  houseManagementType: 
   { guid: 'bfb270d2-43f1-4859-bd3c-89618e20acad',
     code: '5',
     rootEntityGuid: 'bfb270d2-43f1-4859-bd3c-89618e20acad',
     actual: true,
     lastUpdateDate: '06.02.2015',
     createDate: '06.02.2015',
     houseManagementTypeName: 'УО' },
  deterioration: '20',
  buildingYear: '1976',
  operationYear: 1976,
  planSeries: '1-464А-15',
  managementContractDate: '12.08.2014',
  houseEnergyEfficiency: 'D (Пониженный)',
  municipalityOrganizationList: 
   [ { guid: '166061ab-93e1-4e81-9c9b-6dcb76e104d9',
       fullName: 'АДМИНИСТРАЦИЯ ГОРОДСКОГО ОКРУГА ЗАТО СВОБОДНЫЙ',
       shortName: 'АДМИНИСТРАЦИЯ ГОРОДСКОГО ОКРУГА ЗАТО СВОБОДНЫЙ',
       orgAddress: '624790, Свердловская обл, п Свободный, ул Майского, д. 67',
       phone: '+7(34345)58480, 58402',
       url: 'http://адм-ЗАТОСвободный.РФ',
       organizationType: 'A',
       registryOrganizationRootEntityGuid: 'b4aeddcc-cf31-4b39-80c3-fb284a86c293',
       ogrn: '1026600787267' },
     { guid: '166061ab-93e1-4e81-9c9b-6dcb76e104d9',
       fullName: 'АДМИНИСТРАЦИЯ ГОРОДСКОГО ОКРУГА ЗАТО СВОБОДНЫЙ',
       shortName: 'АДМИНИСТРАЦИЯ ГОРОДСКОГО ОКРУГА ЗАТО СВОБОДНЫЙ',
       orgAddress: '624790, Свердловская обл, п Свободный, ул Майского, д. 67',
       phone: '+7(34345)58480, 58402',
       url: 'http://адм-ЗАТОСвободный.РФ',
       organizationType: 'A',
       registryOrganizationRootEntityGuid: 'b4aeddcc-cf31-4b39-80c3-fb284a86c293',
       ogrn: '1026600787267' } ],
  canceledOrAsyncProcessed: false,
  houseGuid: '88a1a433-f4a2-4c03-87ea-42d3b14f7ee7',
  residentialPremiseCount: '90',
  nonResidentialPremiseCount: '0',
  municipalityOrganization: 
   { guid: '166061ab-93e1-4e81-9c9b-6dcb76e104d9',
     fullName: 'АДМИНИСТРАЦИЯ ГОРОДСКОГО ОКРУГА ЗАТО СВОБОДНЫЙ',
     shortName: 'АДМИНИСТРАЦИЯ ГОРОДСКОГО ОКРУГА ЗАТО СВОБОДНЫЙ',
     organizationType: 'A',
     okopf: { guid: 'ce8aa713-653b-48b7-a445-16e2ac4d4daa', code: '75000' },
     ogrn: '1026600787267' },
  maxFloorCount: '5',
  ableEnterDeviceMetering: false,
  blockedHouse: false }
