Мытищи { guid: '78e03008-4022-4b07-9493-f88baf688d3e',
  street: 'Ярославское',
  streetGuid: '3b856a0c-cd91-4cc6-99e9-5b79e4150560',
  houseNumber: '107',
  houseGuid: 'f8ab3f94-0191-41bd-abed-362bd5982cbb',
  city: 'Мытищи',
  cityOff: 'Мытищи',
  cityGuid: '1d54b130-784b-444f-b6d0-8a90149a8a99',
  regionNumber: 77,
  cityType: 'г.',
  streetType: 'ш.',
  real_region: 50,
  phones: '+7(962)9209761 , 79629209761',
  sites: '',
  emails: 'ibondarenko@mail.ru',
  org_type_id: 7,
  work_time: '<p>пн 09:00 - 18:00 , обед 13:00 - 14:00</p><p>вт 09:00 - 18:00 , обед 13:00 - 14:00</p><p>ср 09:00 - 18:00 , обед 13:00 - 14:00</p><p>чт 09:00 - 18:00 , обед 13:00 - 14:00</p><p>пт 09:00 - 18:00 , обед 13:00 - 14:00</p>' } { guid: '78e03008-4022-4b07-9493-f88baf688d3e',
  lastEventDate: '2018-01-02 03:58:31',
  orgOid: '1039280508',
  fullName: 'ТОВАРИЩЕСТВО СОБСТВЕННИКОВ НЕДВИЖИМОСТИ "ЯРОСЛАВСКОЕ"',
  shortName: 'ТСН "ЯРОСЛАВСКОЕ"',
  ogrn: '1175029001993',
  inn: '5029217277',
  kpp: '502901001',
  okopf: 
   { guid: '535d60f2-fe44-4e79-834c-3d23d40468f4',
     code: '20700',
     actual: true,
     lastUpdateDate: '2015-06-12 19:41:30',
     createDate: '2015-06-12 19:41:30',
     name: 'Товарищества собственников недвижимости',
     parent: 
      { guid: '59def63a-f1df-4a62-826c-475f4ab7e6a9',
        code: '20000',
        actual: true,
        lastUpdateDate: '2015-02-06 11:26:36',
        createDate: '2015-02-06 11:26:36',
        name: 'ОРГАНИЗАЦИОННО-ПРАВОВЫЕ ФОРМЫ ЮРИДИЧЕСКИХ ЛИЦ, ЯВЛЯЮЩИХСЯ НЕКОММЕРЧЕСКИМИ КОРПОРАТИВНЫМИ ОРГАНИЗАЦИЯМИ',
        level: 1,
        hasChildren: true },
     level: 3,
     hasChildren: true },
  orgAddress: '141009, ОБЛ МОСКОВСКАЯ, Г МЫТИЩИ, Ш ЯРОСЛАВСКОЕ, д. ДОМ 107, кв. КВАРТИРА 131-132',
  postalAddress: 
   { region: 
      { guid: 'd286798f-0849-4a7c-8e78-33c88dc964c6',
        actual: true,
        aoGuid: '29251dcf-00a1-4e34-98d4-5c47484a36d4',
        aoLevel: 1,
        formalName: 'Московская',
        offName: 'Московская',
        shortName: 'обл',
        regionCode: '50',
        autoCode: '0',
        areaCode: '000',
        cityCode: '000',
        ctarCode: '000',
        placeCode: '000',
        streetCode: '0000',
        extrCode: '0000',
        sextCode: '000' },
     area: 
      { guid: '6b3b03fc-9eee-4e53-a008-c0a848cb0125',
        actual: true,
        aoGuid: 'a87ff831-986b-44a7-8405-00fc699de4ce',
        aoLevel: 3,
        formalName: 'Мытищи',
        offName: 'Мытищи',
        shortName: 'г.о.',
        parentGuid: '29251dcf-00a1-4e34-98d4-5c47484a36d4',
        oktmo: [Object],
        regionCode: '50',
        autoCode: '0',
        areaCode: '019',
        cityCode: '000',
        ctarCode: '000',
        placeCode: '000',
        streetCode: '0000',
        extrCode: '0000',
        sextCode: '000',
        isAddedManually: false },
     city: 
      { guid: '1d54b130-784b-444f-b6d0-8a90149a8a99',
        actual: true,
        aoGuid: '5f290be7-14ff-4ccd-8bc8-2871a9ca9d5f',
        aoLevel: 4,
        formalName: 'Мытищи',
        offName: 'Мытищи',
        shortName: 'г',
        parentGuid: '29251dcf-00a1-4e34-98d4-5c47484a36d4',
        oktmo: [Object],
        regionCode: '50',
        autoCode: '0',
        areaCode: '000',
        cityCode: '044',
        ctarCode: '000',
        placeCode: '000',
        streetCode: '0000',
        extrCode: '0000',
        sextCode: '000',
        isAddedManually: false },
     street: 
      { guid: '3b856a0c-cd91-4cc6-99e9-5b79e4150560',
        actual: true,
        aoGuid: '34c7e1f3-a81e-4d2e-86ff-0e3a8706fe2b',
        aoLevel: 7,
        formalName: 'Ярославское',
        offName: 'Ярославское',
        shortName: 'ш',
        parentGuid: '5f290be7-14ff-4ccd-8bc8-2871a9ca9d5f',
        oktmo: [Object],
        regionCode: '50',
        autoCode: '0',
        areaCode: '000',
        cityCode: '044',
        ctarCode: '000',
        placeCode: '000',
        streetCode: '0366',
        extrCode: '0000',
        sextCode: '000',
        isAddedManually: false },
     house: 
      { guid: 'f8ab3f94-0191-41bd-abed-362bd5982cbb',
        actual: true,
        lastUpdateDate: '2018-08-11 17:02:03',
        createDate: '2018-08-10 17:02:03',
        houseGuid: '3d312bc6-3043-4cd7-8939-58bb857d13b1',
        aoGuid: '34c7e1f3-a81e-4d2e-86ff-0e3a8706fe2b',
        postalCode: '141009',
        houseNumber: '107',
        houseCondition: [Object],
        propertyStateGuid: '4979fb1a-8373-4f99-b87b-0c4ee832da15',
        oktmo: [Object],
        isAddedManually: false,
        estStatus: 'DOM',
        strStatus: 'NE_OPREDELENO',
        fiasHouseGuid: '3d312bc6-3043-4cd7-8939-58bb857d13b1',
        aggregated: false,
        houseTextAddress: '107',
        actualHouseGuid: '3d312bc6-3043-4cd7-8939-58bb857d13b1' },
     houseNumber: '107',
     formattedAddress: 'Московская обл, г. Мытищи, ш. Ярославское, д. 107' },
  factualAddress: 
   { region: 
      { guid: 'd286798f-0849-4a7c-8e78-33c88dc964c6',
        actual: true,
        aoGuid: '29251dcf-00a1-4e34-98d4-5c47484a36d4',
        aoLevel: 1,
        formalName: 'Московская',
        offName: 'Московская',
        shortName: 'обл',
        regionCode: '50',
        autoCode: '0',
        areaCode: '000',
        cityCode: '000',
        ctarCode: '000',
        placeCode: '000',
        streetCode: '0000',
        extrCode: '0000',
        sextCode: '000' },
     area: 
      { guid: '6b3b03fc-9eee-4e53-a008-c0a848cb0125',
        actual: true,
        aoGuid: 'a87ff831-986b-44a7-8405-00fc699de4ce',
        aoLevel: 3,
        formalName: 'Мытищи',
        offName: 'Мытищи',
        shortName: 'г.о.',
        parentGuid: '29251dcf-00a1-4e34-98d4-5c47484a36d4',
        oktmo: [Object],
        regionCode: '50',
        autoCode: '0',
        areaCode: '019',
        cityCode: '000',
        ctarCode: '000',
        placeCode: '000',
        streetCode: '0000',
        extrCode: '0000',
        sextCode: '000',
        isAddedManually: false },
     city: 
      { guid: '1d54b130-784b-444f-b6d0-8a90149a8a99',
        actual: true,
        aoGuid: '5f290be7-14ff-4ccd-8bc8-2871a9ca9d5f',
        aoLevel: 4,
        formalName: 'Мытищи',
        offName: 'Мытищи',
        shortName: 'г',
        parentGuid: '29251dcf-00a1-4e34-98d4-5c47484a36d4',
        oktmo: [Object],
        regionCode: '50',
        autoCode: '0',
        areaCode: '000',
        cityCode: '044',
        ctarCode: '000',
        placeCode: '000',
        streetCode: '0000',
        extrCode: '0000',
        sextCode: '000',
        isAddedManually: false },
     street: 
      { guid: '3b856a0c-cd91-4cc6-99e9-5b79e4150560',
        actual: true,
        aoGuid: '34c7e1f3-a81e-4d2e-86ff-0e3a8706fe2b',
        aoLevel: 7,
        formalName: 'Ярославское',
        offName: 'Ярославское',
        shortName: 'ш',
        parentGuid: '5f290be7-14ff-4ccd-8bc8-2871a9ca9d5f',
        oktmo: [Object],
        regionCode: '50',
        autoCode: '0',
        areaCode: '000',
        cityCode: '044',
        ctarCode: '000',
        placeCode: '000',
        streetCode: '0366',
        extrCode: '0000',
        sextCode: '000',
        isAddedManually: false },
     house: 
      { guid: 'f8ab3f94-0191-41bd-abed-362bd5982cbb',
        actual: true,
        lastUpdateDate: '2018-08-11 17:02:03',
        createDate: '2018-08-10 17:02:03',
        houseGuid: '3d312bc6-3043-4cd7-8939-58bb857d13b1',
        aoGuid: '34c7e1f3-a81e-4d2e-86ff-0e3a8706fe2b',
        postalCode: '141009',
        houseNumber: '107',
        houseCondition: [Object],
        propertyStateGuid: '4979fb1a-8373-4f99-b87b-0c4ee832da15',
        oktmo: [Object],
        isAddedManually: false,
        estStatus: 'DOM',
        strStatus: 'NE_OPREDELENO',
        fiasHouseGuid: '3d312bc6-3043-4cd7-8939-58bb857d13b1',
        aggregated: false,
        houseTextAddress: '107',
        actualHouseGuid: '3d312bc6-3043-4cd7-8939-58bb857d13b1' },
     houseNumber: '107',
     formattedAddress: 'Московская обл, г. Мытищи, ш. Ярославское, д. 107' },
  phone: '+7(962)9209761',
  faxes: [ null ],
  orgEmail: 'ibondarenko@mail.ru',
  stateRegistrationDate: '2017-01-18 00:00:00',
  chiefLastName: 'Бондаренко',
  chiefFirstName: 'Игорь',
  chiefMiddleName: 'Васильевич',
  organizationType: 'L',
  timeZone: 
   { guid: 'fac01e32-9702-4fc0-ae4e-4ba8bcc5890e',
     code: '2',
     olsonTZList: [ [Object] ] },
  organizationRoles: 
   [ { guid: '29e338ff-aa38-4e5a-a25c-ed75c1deadf4',
       createDate: '2017-04-03 11:52:24',
       lastEventDate: '2017-04-03 11:52:39',
       role: [Object],
       status: 'APPROVED',
       region: [Object] } ],
  registryOrganizationRootEntityGuid: '828c5d5e-c67c-451e-b5d2-df5c0b1c54eb',
  branch: false,
  AdditionalData: 
   { guid: 'bf54a3a1-c256-4cfb-a42d-417663289457',
     organizationOpeningHours: 
      [ [Object],
        [Object],
        [Object],
        [Object],
        [Object],
        [Object],
        [Object] ],
     citizenReceptionInfoList: [ [Object] ],
     dispatcherPhones: [ '79629209761' ],
     chiefInfo: 
      { guid: '2b8c30b5-1ca5-4359-90ab-d108de648da2',
        lastEventDate: '2017-12-01 14:53:33',
        fio: 'Бондаренко Игорь Васильевич',
        position: 'Председатель ТСН' },
     controlLocation: 
      { region: [Object],
        area: [Object],
        city: [Object],
        street: [Object],
        house: [Object],
        houseNumber: '107',
        formattedAddress: 'Московская обл, г. Мытищи, ш. Ярославское, д. 107' },
     ownerInfoLocation: 'лифтовые холлы подъездов на 1 этаже',
     selfRegulationInfoEnabled: false,
     participationInAuthorizedCapitalInfoList: [ [Object], [Object], [Object] ],
     competitiveSelection: false,
     payingInformationSystemFound: false,
     planningInformationSystemFound: false,
     regularUnitCount: 0,
     workingUnitCount: 0,
     planUnitCount: 2,
     planAdministrativeUnitCount: 0,
     planEngineerUnitCount: 0,
     planWorkerUnitCount: 0 } }
